<?xml version="1.0" encoding="UTF-8" standalone="no"?>
<!DOCTYPE svg PUBLIC "-//W3C//DTD SVG 1.1//EN"
 "http://www.w3.org/Graphics/SVG/1.1/DTD/svg11.dtd">
<!-- Generated by graphviz version 2.47.3 (20210619.1520)
 -->
<!-- Title: dependencies Pages: 1 -->
<svg width="376pt" height="174pt"
 viewBox="0.00 0.00 376.00 173.80" xmlns="http://www.w3.org/2000/svg" xmlns:xlink="http://www.w3.org/1999/xlink">
<g id="graph0" class="graph" transform="scale(1 1) rotate(0) translate(4 169.8)">
<title>dependencies</title>
<polygon fill="white" stroke="transparent" points="-4,4 -4,-169.8 372,-169.8 372,4 -4,4"/>
<text text-anchor="middle" x="184" y="-8.2" font-family="sans-serif" font-size="14.00">dependencies</text>
<g id="clust1" class="cluster">
<title>cluster_CamarerosPageModule</title>
<polygon fill="none" stroke="black" stroke-dasharray="1,5" points="8,-32.8 8,-157.8 360,-157.8 360,-32.8 8,-32.8"/>
</g>
<g id="clust2" class="cluster">
<title>cluster_CamarerosPageModule_declarations</title>
<polygon fill="none" stroke="black" points="232,-40.8 232,-92.8 352,-92.8 352,-40.8 232,-40.8"/>
</g>
<g id="clust4" class="cluster">
<title>cluster_CamarerosPageModule_imports</title>
<polygon fill="none" stroke="black" points="16,-40.8 16,-92.8 224,-92.8 224,-40.8 16,-40.8"/>
</g>
<!-- CamarerosPage -->
<g id="node1" class="node">
<title>CamarerosPage</title>
<polygon fill="#ffffb3" stroke="black" points="343.85,-84.8 240.15,-84.8 240.15,-48.8 343.85,-48.8 343.85,-84.8"/>
<text text-anchor="middle" x="292" y="-62.6" font-family="Times,serif" font-size="14.00">CamarerosPage</text>
</g>
<!-- CamarerosPageModule -->
<g id="node2" class="node">
<title>CamarerosPageModule</title>
<polygon fill="#8dd3c7" stroke="black" points="272.9,-149.8 269.9,-153.8 248.9,-153.8 245.9,-149.8 125.1,-149.8 125.1,-113.8 272.9,-113.8 272.9,-149.8"/>
<text text-anchor="middle" x="199" y="-127.6" font-family="Times,serif" font-size="14.00">CamarerosPageModule</text>
</g>
<!-- CamarerosPage&#45;&gt;CamarerosPageModule -->
<g id="edge1" class="edge">
<title>CamarerosPage&#45;&gt;CamarerosPageModule</title>
<path fill="none" stroke="black" d="M256.39,-84.91C256.39,-84.91 256.39,-103.79 256.39,-103.79"/>
<polygon fill="black" stroke="black" points="252.89,-103.79 256.39,-113.79 259.89,-103.79 252.89,-103.79"/>
</g>
<!-- CamarerosPageRoutingModule -->
<g id="node3" class="node">
<title>CamarerosPageRoutingModule</title>
<polygon fill="#8dd3c7" stroke="black" points="216.02,-84.8 213.02,-88.8 192.02,-88.8 189.02,-84.8 23.98,-84.8 23.98,-48.8 216.02,-48.8 216.02,-84.8"/>
<text text-anchor="middle" x="120" y="-62.6" font-family="Times,serif" font-size="14.00">CamarerosPageRoutingModule</text>
</g>
<!-- CamarerosPageRoutingModule&#45;&gt;CamarerosPageModule -->
<g id="edge2" class="edge">
<title>CamarerosPageRoutingModule&#45;&gt;CamarerosPageModule</title>
<path fill="none" stroke="black" d="M170.78,-84.91C170.78,-84.91 170.78,-103.79 170.78,-103.79"/>
<polygon fill="black" stroke="black" points="167.28,-103.79 170.78,-113.79 174.28,-103.79 167.28,-103.79"/>
</g>
</g>
</svg>
